<?xml version="1.0" ?>
<sdf version="1.4">
  <world name="default">
    <include>
      <uri>model://ground_plane</uri>
    </include>
    <include>
      <uri>model://sun</uri>
    </include>
      <physics type="ode">
         <max_contacts>100</max_contacts>
      <gravity>0.000000 0.000000 -9.810000</gravity>
      <ode>
        <solver>
          <type>quick</type>
          <iters>100</iters>
          <precon_iters>0</precon_iters>
          <sor>1.000000</sor>
        </solver>
        <constraints>
          <cfm>0.000000</cfm>
          <erp>0.200000</erp>
          <contact_max_correcting_vel>0.000000</contact_max_correcting_vel>
          <contact_surface_layer>0.00000</contact_surface_layer>
        </constraints>
      </ode>
      <real_time_update_rate>0.000000</real_time_update_rate>
      <max_step_size>0.001000</max_step_size>
    </physics>
    
  </world>
</sdf>
